[
  
  {
    "title": "Vanilla OS and the next-generation Linux desktop",
    "url": "/posts/Vanilla-OS-and-the-next-generation-Linux-desktop/",
    "categories": "Linux, Immutable",
    "tags": "flatpak, Flathub, AUR, Distrobox, Fedora Silverblue",
    "date": "2023-01-03 12:04:00 +0000",
    





    "snippet": "Vanilla OS, an Ubuntu-based Linux distribution, recently had its first stable release. Much like other Ubuntu-based distributions, it emphasizes ease of use. However, it approaches this differently..."
  },
  
  {
    "title": "Distribution packaging for Linux desktop applications is unsustainable",
    "url": "/posts/Distribution-packaging-for-Linux-desktop-applications-is-unsustainable/",
    "categories": "Linux, Packaging",
    "tags": "flatpak, Flathub, AUR, Linux gaming, software security, privacy",
    "date": "2022-11-03 18:04:00 +0000",
    





    "snippet": "Traditionally, Linux-based desktop operating systems, also known as distributions, provide applications to their users through their respective software repositories. As a user of a distribution, o..."
  }
  
]

